sim/waveforms/cpu_wavedata.vcd
$date
	Thu Nov 27 20:51:02 2025
$end
$version
	Icarus Verilog
$end
$timescale
	1s
$end
$scope module cpu_tb $end
$var reg 1 ! clock $end
$var reg 1 " reset $end
$var integer 32 # f [31:0] $end
$scope module my_cpu $end
$var wire 1 ! clock $end
$var wire 1 $ effective_mem_write $end
$var wire 1 " reset $end
$var wire 1 % pc_enable $end
$var wire 8 & pc_address [7:0] $end
$var wire 16 ' memory_out_wire [15:0] $end
$var wire 1 ( mem_write_enable_cpu_w $end
$var wire 16 ) mem_write_data_cpu_w [15:0] $end
$var wire 1 * mem_address_select_cpu_w $end
$var wire 1 + halt_cpu_w $end
$var wire 8 , final_mem_address [7:0] $end
$var wire 8 - alu_address_cpu_w [7:0] $end
$var reg 16 . instruction_register_store [15:0] $end
$var reg 1 / state $end
$scope module my_datapath $end
$var wire 1 ! clock $end
$var wire 16 0 instruction_register [15:0] $end
$var wire 1 % pc_write_enable $end
$var wire 1 " reset $end
$var wire 3 1 rt_addr [2:0] $end
$var wire 3 2 rs_addr [2:0] $end
$var wire 16 3 regfile_immediate_mux_ALU [15:0] $end
$var wire 16 4 regfile_data2_out [15:0] $end
$var wire 16 5 regfile_data1_out [15:0] $end
$var wire 1 6 reg_write_enable_ctrl $end
$var wire 16 7 reg_write_data_in [15:0] $end
$var wire 3 8 rd_addr [2:0] $end
$var wire 8 9 pc_plus_1 [7:0] $end
$var wire 8 : pc_next_address [7:0] $end
$var wire 8 ; pc_jump_target [7:0] $end
$var wire 4 < opcode [3:0] $end
$var wire 1 ( mem_write_enable_out $end
$var wire 1 = mem_write_enable_ctrl $end
$var wire 16 > mem_write_data_out [15:0] $end
$var wire 1 ? mem_to_reg_select_ctrl $end
$var wire 16 @ mem_read_data_in [15:0] $end
$var wire 1 * mem_address_select_out $end
$var wire 1 A mem_address_select_ctrl $end
$var wire 1 B jump_enable_ctrl $end
$var wire 8 C instruction_address [7:0] $end
$var wire 16 D immediate_sign_extended [15:0] $end
$var wire 16 E imm9_extended [15:0] $end
$var wire 9 F imm9 [8:0] $end
$var wire 16 G imm6_extended [15:0] $end
$var wire 6 H imm6 [5:0] $end
$var wire 1 + halt_cpu_out $end
$var wire 1 I halt_cpu_ctrl $end
$var wire 8 J branch_target_address [7:0] $end
$var wire 1 K branch_enable_ctrl $end
$var wire 1 L alu_zero_flag $end
$var wire 1 M alu_src_select_ctrl $end
$var wire 16 N alu_result_out [15:0] $end
$var wire 4 O alu_opcode_ctrl [3:0] $end
$var wire 8 P alu_address_out [7:0] $end
$var wire 8 Q actual_next_pc [7:0] $end
$scope module my_alu $end
$var wire 16 R num2 [15:0] $end
$var wire 1 L zero $end
$var wire 4 S opcode [3:0] $end
$var wire 16 T num1 [15:0] $end
$var reg 16 U result [15:0] $end
$upscope $end
$scope module my_control_unit $end
$var wire 1 L alu_zero_flag_in $end
$var wire 4 V opcode [3:0] $end
$var parameter 4 W ALU_ADD $end
$var parameter 4 X ALU_AND $end
$var parameter 4 Y ALU_BYP $end
$var parameter 4 Z ALU_NOT $end
$var parameter 4 [ ALU_OR $end
$var parameter 4 \ ALU_SUB $end
$var parameter 4 ] ALU_XOR $end
$var parameter 4 ^ OP_ADD $end
$var parameter 4 _ OP_AND $end
$var parameter 4 ` OP_BEQZ $end
$var parameter 4 a OP_HLT $end
$var parameter 4 b OP_JMP $end
$var parameter 4 c OP_LD $end
$var parameter 4 d OP_MOV $end
$var parameter 4 e OP_NOP $end
$var parameter 4 f OP_NOT $end
$var parameter 4 g OP_OR $end
$var parameter 4 h OP_ST $end
$var parameter 4 i OP_SUB $end
$var parameter 4 j OP_XOR $end
$var reg 4 k alu_opcode_out [3:0] $end
$var reg 1 M alu_src_select_out $end
$var reg 1 K branch_enable_out $end
$var reg 1 I halt_cpu_out $end
$var reg 1 B jump_enable_out $end
$var reg 1 A mem_address_select_out $end
$var reg 1 ? mem_to_reg_select_out $end
$var reg 1 = mem_write_enable_out $end
$var reg 1 6 reg_write_enable_out $end
$upscope $end
$scope module my_pc $end
$var wire 1 ! clock $end
$var wire 8 l next_address [7:0] $end
$var wire 1 " reset $end
$var reg 8 m current_address [7:0] $end
$scope task log_pc_change $end
$var integer 32 n f_pc_log [31:0] $end
$upscope $end
$upscope $end
$scope module my_regfile $end
$var wire 1 ! clock $end
$var wire 3 o regDestination [2:0] $end
$var wire 3 p regSource1 [2:0] $end
$var wire 3 q regSource2 [2:0] $end
$var wire 1 " reset $end
$var wire 16 r writeData [15:0] $end
$var wire 1 s writeEnable $end
$var wire 16 t data2 [15:0] $end
$var wire 16 u data1 [15:0] $end
$var integer 32 v i [31:0] $end
$scope task display_memory_content $end
$var integer 32 w f [31:0] $end
$var integer 32 x j [31:0] $end
$upscope $end
$upscope $end
$upscope $end
$scope module my_system_memory $end
$var wire 8 y address [7:0] $end
$var wire 1 ! clock $end
$var wire 1 z enable $end
$var wire 16 { readData [15:0] $end
$var wire 16 | writeData [15:0] $end
$var wire 1 $ writeEnable $end
$scope task display_memory_content $end
$var integer 32 } f [31:0] $end
$var integer 32 ~ j [31:0] $end
$upscope $end
$upscope $end
$upscope $end
$upscope $end
$enddefinitions $end
$comment Show the parameter values. $end
$dumpall
b101 j
b10 i
b1001 h
b100 g
b110 f
b0 e
b111 d
b1000 c
b1011 b
b1110 a
b1010 `
b11 _
b1 ^
b101 ]
b10 \
b100 [
b110 Z
b1111 Y
b11 X
b1 W
$end
#0
$dumpvars
b100000000 ~
b10000000000000000000000000000011 }
b0 |
bx {
1z
bx y
bx x
bx w
bx v
bx u
bx t
xs
bx r
bx q
bx p
bx o
b10000000000000000000000000000011 n
bx m
bx l
bx k
bx V
bx U
bx T
bx S
bx R
bx Q
b0 P
bx O
bx N
xM
xL
xK
bx J
xI
bx H
bx G
bx F
bx E
bx D
bx C
xB
xA
bx @
x?
b0 >
x=
bx <
bx ;
bx :
bx 9
bx 8
bx 7
x6
bx 5
bx 4
bx 3
bx 2
bx 1
bx 0
x/
bx .
b0 -
bx ,
0+
0*
b0 )
0(
bx '
bx &
x%
0$
b10000000000000000000000000000011 #
1"
0!
$end
#5
b1 :
b0 7
b0 r
1L
b0 N
b0 U
b0 3
b0 R
b0 J
b0 ;
0I
0A
0K
0B
0?
0M
b1111 O
b1111 S
b1111 k
0=
06
b0 5
b0 T
b0 u
b0 4
b0 t
b0 D
b0 <
b0 V
b0 8
b0 o
b0 2
b0 p
b0 1
b0 q
b0 G
b0 H
b0 E
b0 F
b111001000000000 '
b111001000000000 @
b111001000000000 {
b0 ,
b0 y
0s
b0 Q
b0 l
b1 9
b0 &
b0 C
b0 m
b0 .
b0 0
0%
0/
b1000 v
1!
#10
0!
#15
b1000 v
1!
#20
0"
0!
#25
1s
b1 O
b1 S
b1 k
1M
16
b1 Q
b1 l
b111 <
b111 V
b1 8
b1 o
1%
1/
b111001000000000 .
b111001000000000 0
1!
#30
0!
#35
b10 :
b111010000000001 '
b111010000000001 @
b111010000000001 {
b1 ,
b1 y
0s
0%
0/
b10 9
b1 &
b1 C
b1 m
1!
#40
0!
#45
b1 -
b1 P
b1 7
b1 r
0L
b1 N
b1 U
b1 3
b1 R
b1 J
b1 ;
b1 D
1s
b10 Q
b10 l
b10 8
b10 o
b1 G
b1 H
b1 E
b1 F
1%
1/
b111010000000001 .
b111010000000001 0
1!
#50
0!
#55
b11 :
b111011000110010 '
b111011000110010 @
b111011000110010 {
b10 ,
b10 y
0s
0%
0/
b11 9
b10 &
b10 C
b10 m
1!
#60
0!
#65
b110010 -
b110010 P
b110010 7
b110010 r
b110010 N
b110010 U
b110010 3
b110010 R
b110010 J
b110010 ;
b110010 D
1s
b11 Q
b11 l
b11 8
b11 o
b110 1
b110 q
b1111111111110010 G
b110010 H
b110010 E
b110010 F
1%
1/
b111011000110010 .
b111011000110010 0
1!
#70
0!
#75
b100 :
b111110000010100 '
b111110000010100 @
b111110000010100 {
b11 ,
b11 y
0s
0%
0/
b100 9
b11 &
b11 C
b11 m
1!
#80
0!
#85
b10100 -
b10100 P
b10100 7
b10100 r
b10100 N
b10100 U
b1 )
b1 >
b1 |
b10100 3
b10100 R
b10100 J
b10100 ;
b1 4
b1 t
b10100 D
1s
b100 Q
b100 l
b110 8
b110 o
b10 1
b10 q
b10100 G
b10100 H
b10100 E
b10100 F
1%
1/
b111110000010100 .
b111110000010100 0
1!
#90
0!
#95
b101 :
b111101000000001 '
b111101000000001 @
b111101000000001 {
b100 ,
b100 y
0s
0%
0/
b101 9
b100 &
b100 C
b100 m
1!
#100
0!
#105
b1 -
b1 P
b1 7
b1 r
b1 N
b1 U
b0 )
b0 >
b0 |
b1 3
b1 R
b1 J
b1 ;
b0 4
b0 t
b1 D
1s
b101 Q
b101 l
b101 8
b101 o
b0 1
b0 q
b1 G
b1 H
b1 E
b1 F
1%
1/
b111101000000001 .
b111101000000001 0
1!
#110
0!
#115
b110 :
b1010000110001101 '
b1010000110001101 @
b1010000110001101 {
b101 ,
b101 y
0s
0%
0/
b110 9
b101 &
b101 C
b101 m
1!
#120
0!
#125
b10100 -
b10100 P
b10100 7
b10100 r
b10100 N
b10100 U
b1101 3
b1101 R
b1101 J
b1101 ;
1K
1M
b1111 O
b1111 S
b1111 k
06
b10100 5
b10100 T
b10100 u
b1101 D
0s
b110 Q
b110 l
b1010 <
b1010 V
b0 8
b0 o
b110 2
b110 p
b1 1
b1 q
b1101 G
b1101 H
b1111111110001101 E
b110001101 F
1%
1/
b1010000110001101 .
b1010000110001101 0
1!
#130
0!
#135
b111 :
b1001000011001000 '
b1001000011001000 @
b1001000011001000 {
b110 ,
b110 y
0%
0/
b111 9
b110 &
b110 C
b110 m
1!
#140
0!
#145
bx '
bx @
bx {
b110010 ,
b110010 y
b110010 -
b110010 P
1$
b110010 7
b110010 r
1*
1(
b110010 N
b110010 U
b0 3
b0 R
b1000 J
b1000 ;
1A
1=
0K
0M
b110010 5
b110010 T
b110010 u
b1000 D
b111 Q
b111 l
b1001 <
b1001 V
b11 2
b11 p
b1000 G
b1000 H
b11001000 E
b11001000 F
1%
1/
b1001000011001000 .
b1001000011001000 0
1!
#150
b100000000 ~
0!
#155
b1000 :
b111 ,
b111 y
0$
0%
0/
b1100001010000 '
b1100001010000 @
b1100001010000 {
b1000 9
b111 &
b111 C
b111 m
1!
#160
0!
#165
b1 -
b1 P
b1 7
b1 r
1s
0*
0(
b1 N
b1 U
b1 )
b1 >
b1 |
b1 3
b1 R
b10000 J
b10000 ;
b1 O
b1 S
b1 k
16
0A
0=
b0 5
b0 T
b0 u
b1 4
b1 t
b10000 D
b1100001010000 '
b1100001010000 @
b1100001010000 {
b111 ,
b111 y
b1000 Q
b1000 l
0$
b1 <
b1 V
b100 8
b100 o
b1 2
b1 p
b10 1
b10 q
b10000 G
b10000 H
b1010000 E
b1010000 F
1%
1/
b1100001010000 .
b1100001010000 0
1!
#170
0!
#175
b1001 :
b1001010000000 '
b1001010000000 @
b1001010000000 {
b1000 ,
b1000 y
0s
0%
0/
b1001 9
b1000 &
b1000 C
b1000 m
1!
#180
0!
#185
b0 )
b0 >
b0 |
b0 3
b0 R
b0 J
b0 ;
b1 5
b1 T
b1 u
b0 4
b0 t
b0 D
1s
b1001 Q
b1001 l
b1 8
b1 o
b10 2
b10 p
b0 1
b0 q
b0 G
b0 H
b10000000 E
b10000000 F
1%
1/
b1001010000000 .
b1001010000000 0
1!
#190
0!
#195
b1010 :
b1010100000000 '
b1010100000000 @
b1010100000000 {
b1001 ,
b1001 y
0s
0%
0/
b1010 9
b1001 &
b1001 C
b1001 m
1!
#200
0!
#205
1s
b1010 Q
b1010 l
b10 8
b10 o
b100 2
b100 p
b1111111100000000 E
b100000000 F
1%
1/
b1010100000000 .
b1010100000000 0
1!
#210
0!
#215
b1011 :
b1011011101000 '
b1011011101000 @
b1011011101000 {
b1010 ,
b1010 y
0s
0%
0/
b1011 9
b1010 &
b1010 C
b1010 m
1!
#220
0!
#225
b110011 -
b110011 P
b110011 7
b110011 r
b110011 N
b110011 U
b1 )
b1 >
b1 |
b1 3
b1 R
b11101000 J
b11101000 ;
b110010 5
b110010 T
b110010 u
b1 4
b1 t
b1111111111101000 D
1s
b1011 Q
b1011 l
b11 8
b11 o
b11 2
b11 p
b101 1
b101 q
b1111111111101000 G
b101000 H
b11101000 E
b11101000 F
1%
1/
b1011011101000 .
b1011011101000 0
1!
#230
0!
#235
b110100 -
b110100 P
b110100 7
b110100 r
b110100 N
b110100 U
b1100 :
b10110110101000 '
b10110110101000 @
b10110110101000 {
b1011 ,
b1011 y
0s
b110011 5
b110011 T
b110011 u
0%
0/
b1100 9
b1011 &
b1011 C
b1011 m
1!
#240
0!
#245
b10011 -
b10011 P
b10011 7
b10011 r
b10011 N
b10011 U
b10 O
b10 S
b10 k
16
b10100 5
b10100 T
b10100 u
1s
b1100 Q
b1100 l
b10 <
b10 V
b110 8
b110 o
b110 2
b110 p
b1111111110101000 E
b110101000 F
1%
1/
b10110110101000 .
b10110110101000 0
1!
#250
0!
#255
b10010 -
b10010 P
b10010 7
b10010 r
b10010 N
b10010 U
b1101 :
b1011000000000101 '
b1011000000000101 @
b1011000000000101 {
b1100 ,
b1100 y
0s
b10011 5
b10011 T
b10011 u
0%
0/
b1101 9
b1100 &
b1100 C
b1100 m
1!
#260
0!
#265
b0 -
b0 P
b0 7
b0 r
b101 :
1L
b0 N
b0 U
b0 )
b0 >
b0 |
b0 3
b0 R
b101 J
b101 ;
1B
b1111 O
b1111 S
b1111 k
06
b0 5
b0 T
b0 u
b0 4
b0 t
b101 D
0s
b101 Q
b101 l
b1011 <
b1011 V
b0 8
b0 o
b0 2
b0 p
b0 1
b0 q
b101 G
b101 H
b101 E
b101 F
1%
1/
b1011000000000101 .
b1011000000000101 0
1!
#270
0!
#275
b1010000110001101 '
b1010000110001101 @
b1010000110001101 {
b101 ,
b101 y
0%
0/
b110 9
b101 &
b101 C
b101 m
1!
#280
0!
#285
b10011 -
b10011 P
b110 Q
b110 l
b10011 7
b10011 r
b110 :
0L
b10011 N
b10011 U
b1 )
b1 >
b1 |
b1101 3
b1101 R
b1101 J
b1101 ;
1M
1K
0B
b10011 5
b10011 T
b10011 u
b1 4
b1 t
b1101 D
b1010 <
b1010 V
b110 2
b110 p
b1 1
b1 q
b1101 G
b1101 H
b1111111110001101 E
b110001101 F
1%
1/
b1010000110001101 .
b1010000110001101 0
1!
#290
0!
#295
b111 :
b1001000011001000 '
b1001000011001000 @
b1001000011001000 {
b110 ,
b110 y
0%
0/
b111 9
b110 &
b110 C
b110 m
1!
#300
0!
#305
bx '
bx @
bx {
b110011 ,
b110011 y
b110011 -
b110011 P
1$
b110011 7
b110011 r
1*
1(
b110011 N
b110011 U
b1 3
b1 R
b1000 J
b1000 ;
1A
1=
0K
0M
b110011 5
b110011 T
b110011 u
b1000 D
b111 Q
b111 l
b1001 <
b1001 V
b11 2
b11 p
b1000 G
b1000 H
b11001000 E
b11001000 F
1%
1/
b1001000011001000 .
b1001000011001000 0
1!
#310
b100000000 ~
0!
#315
b1000 :
b111 ,
b111 y
0$
0%
0/
b1100001010000 '
b1100001010000 @
b1100001010000 {
b1000 9
b111 &
b111 C
b111 m
1!
#320
0!
#325
b10 -
b10 P
b10 7
b10 r
1s
0*
0(
b10 N
b10 U
b10000 J
b10000 ;
b1 O
b1 S
b1 k
16
0A
0=
b1 5
b1 T
b1 u
b10000 D
b1100001010000 '
b1100001010000 @
b1100001010000 {
b111 ,
b111 y
b1000 Q
b1000 l
0$
b1 <
b1 V
b100 8
b100 o
b1 2
b1 p
b10 1
b10 q
b10000 G
b10000 H
b1010000 E
b1010000 F
1%
1/
b1100001010000 .
b1100001010000 0
1!
#330
0!
#335
b1001 :
b1001010000000 '
b1001010000000 @
b1001010000000 {
b1000 ,
b1000 y
0s
0%
0/
b1001 9
b1000 &
b1000 C
b1000 m
1!
#340
0!
#345
b1 -
b1 P
b1 7
b1 r
b1 N
b1 U
b0 )
b0 >
b0 |
b0 3
b0 R
b0 J
b0 ;
b0 4
b0 t
b0 D
1s
b1001 Q
b1001 l
b1 8
b1 o
b10 2
b10 p
b0 1
b0 q
b0 G
b0 H
b10000000 E
b10000000 F
1%
1/
b1001010000000 .
b1001010000000 0
1!
#350
0!
#355
b1010 :
b1010100000000 '
b1010100000000 @
b1010100000000 {
b1001 ,
b1001 y
0s
0%
0/
b1010 9
b1001 &
b1001 C
b1001 m
1!
#360
0!
#365
b10 -
b10 P
b10 7
b10 r
b10 N
b10 U
b10 5
b10 T
b10 u
1s
b1010 Q
b1010 l
b10 8
b10 o
b100 2
b100 p
b1111111100000000 E
b100000000 F
1%
1/
b1010100000000 .
b1010100000000 0
1!
#370
0!
#375
b1011 :
b1011011101000 '
b1011011101000 @
b1011011101000 {
b1010 ,
b1010 y
0s
0%
0/
b1011 9
b1010 &
b1010 C
b1010 m
1!
#380
0!
#385
b110100 -
b110100 P
b110100 7
b110100 r
b110100 N
b110100 U
b1 )
b1 >
b1 |
b1 3
b1 R
b11101000 J
b11101000 ;
b110011 5
b110011 T
b110011 u
b1 4
b1 t
b1111111111101000 D
1s
b1011 Q
b1011 l
b11 8
b11 o
b11 2
b11 p
b101 1
b101 q
b1111111111101000 G
b101000 H
b11101000 E
b11101000 F
1%
1/
b1011011101000 .
b1011011101000 0
1!
#390
0!
#395
b110101 -
b110101 P
b110101 7
b110101 r
b110101 N
b110101 U
b1100 :
b10110110101000 '
b10110110101000 @
b10110110101000 {
b1011 ,
b1011 y
0s
b110100 5
b110100 T
b110100 u
0%
0/
b1100 9
b1011 &
b1011 C
b1011 m
1!
#400
0!
#405
b10010 -
b10010 P
b10010 7
b10010 r
b10010 N
b10010 U
b10 O
b10 S
b10 k
16
b10011 5
b10011 T
b10011 u
1s
b1100 Q
b1100 l
b10 <
b10 V
b110 8
b110 o
b110 2
b110 p
b1111111110101000 E
b110101000 F
1%
1/
b10110110101000 .
b10110110101000 0
1!
#410
0!
#415
b10001 -
b10001 P
b10001 7
b10001 r
b10001 N
b10001 U
b1101 :
b1011000000000101 '
b1011000000000101 @
b1011000000000101 {
b1100 ,
b1100 y
0s
b10010 5
b10010 T
b10010 u
0%
0/
b1101 9
b1100 &
b1100 C
b1100 m
1!
#420
0!
#425
b0 -
b0 P
b0 7
b0 r
b101 :
1L
b0 N
b0 U
b0 )
b0 >
b0 |
b0 3
b0 R
b101 J
b101 ;
1B
b1111 O
b1111 S
b1111 k
06
b0 5
b0 T
b0 u
b0 4
b0 t
b101 D
0s
b101 Q
b101 l
b1011 <
b1011 V
b0 8
b0 o
b0 2
b0 p
b0 1
b0 q
b101 G
b101 H
b101 E
b101 F
1%
1/
b1011000000000101 .
b1011000000000101 0
1!
#430
0!
#435
b1010000110001101 '
b1010000110001101 @
b1010000110001101 {
b101 ,
b101 y
0%
0/
b110 9
b101 &
b101 C
b101 m
1!
#440
0!
#445
b10010 -
b10010 P
b110 Q
b110 l
b10010 7
b10010 r
b110 :
0L
b10010 N
b10010 U
b1 )
b1 >
b1 |
b1101 3
b1101 R
b1101 J
b1101 ;
1M
1K
0B
b10010 5
b10010 T
b10010 u
b1 4
b1 t
b1101 D
b1010 <
b1010 V
b110 2
b110 p
b1 1
b1 q
b1101 G
b1101 H
b1111111110001101 E
b110001101 F
1%
1/
b1010000110001101 .
b1010000110001101 0
1!
#450
0!
#455
b111 :
b1001000011001000 '
b1001000011001000 @
b1001000011001000 {
b110 ,
b110 y
0%
0/
b111 9
b110 &
b110 C
b110 m
1!
#460
0!
#465
bx '
bx @
bx {
b110100 ,
b110100 y
b110100 -
b110100 P
1$
b110100 7
b110100 r
1*
1(
b110100 N
b110100 U
b1 3
b1 R
b1000 J
b1000 ;
1A
1=
0K
0M
b110100 5
b110100 T
b110100 u
b1000 D
b111 Q
b111 l
b1001 <
b1001 V
b11 2
b11 p
b1000 G
b1000 H
b11001000 E
b11001000 F
1%
1/
b1001000011001000 .
b1001000011001000 0
1!
#470
b100000000 ~
0!
#475
b1000 :
b111 ,
b111 y
0$
0%
0/
b1100001010000 '
b1100001010000 @
b1100001010000 {
b1000 9
b111 &
b111 C
b111 m
1!
#480
0!
#485
b11 -
b11 P
b11 7
b11 r
1s
0*
0(
b11 N
b11 U
b10 )
b10 >
b10 |
b10 3
b10 R
b10000 J
b10000 ;
b1 O
b1 S
b1 k
16
0A
0=
b1 5
b1 T
b1 u
b10 4
b10 t
b10000 D
b1100001010000 '
b1100001010000 @
b1100001010000 {
b111 ,
b111 y
b1000 Q
b1000 l
0$
b1 <
b1 V
b100 8
b100 o
b1 2
b1 p
b10 1
b10 q
b10000 G
b10000 H
b1010000 E
b1010000 F
1%
1/
b1100001010000 .
b1100001010000 0
1!
#490
0!
#495
b1001 :
b1001010000000 '
b1001010000000 @
b1001010000000 {
b1000 ,
b1000 y
0s
0%
0/
b1001 9
b1000 &
b1000 C
b1000 m
1!
#500
0!
#505
b10 -
b10 P
b10 7
b10 r
b10 N
b10 U
b0 )
b0 >
b0 |
b0 3
b0 R
b0 J
b0 ;
b10 5
b10 T
b10 u
b0 4
b0 t
b0 D
1s
b1001 Q
b1001 l
b1 8
b1 o
b10 2
b10 p
b0 1
b0 q
b0 G
b0 H
b10000000 E
b10000000 F
1%
1/
b1001010000000 .
b1001010000000 0
1!
#510
0!
#515
b1010 :
b1010100000000 '
b1010100000000 @
b1010100000000 {
b1001 ,
b1001 y
0s
0%
0/
b1010 9
b1001 &
b1001 C
b1001 m
1!
#520
0!
#525
b11 -
b11 P
b11 7
b11 r
b11 N
b11 U
b11 5
b11 T
b11 u
1s
b1010 Q
b1010 l
b10 8
b10 o
b100 2
b100 p
b1111111100000000 E
b100000000 F
1%
1/
b1010100000000 .
b1010100000000 0
1!
#530
0!
#535
b1011 :
b1011011101000 '
b1011011101000 @
b1011011101000 {
b1010 ,
b1010 y
0s
0%
0/
b1011 9
b1010 &
b1010 C
b1010 m
1!
#540
0!
#545
b110101 -
b110101 P
b110101 7
b110101 r
b110101 N
b110101 U
b1 )
b1 >
b1 |
b1 3
b1 R
b11101000 J
b11101000 ;
b110100 5
b110100 T
b110100 u
b1 4
b1 t
b1111111111101000 D
1s
b1011 Q
b1011 l
b11 8
b11 o
b11 2
b11 p
b101 1
b101 q
b1111111111101000 G
b101000 H
b11101000 E
b11101000 F
1%
1/
b1011011101000 .
b1011011101000 0
1!
#550
0!
#555
b110110 -
b110110 P
b110110 7
b110110 r
b110110 N
b110110 U
b1100 :
b10110110101000 '
b10110110101000 @
b10110110101000 {
b1011 ,
b1011 y
0s
b110101 5
b110101 T
b110101 u
0%
0/
b1100 9
b1011 &
b1011 C
b1011 m
1!
#560
0!
#565
b10001 -
b10001 P
b10001 7
b10001 r
b10001 N
b10001 U
b10 O
b10 S
b10 k
16
b10010 5
b10010 T
b10010 u
1s
b1100 Q
b1100 l
b10 <
b10 V
b110 8
b110 o
b110 2
b110 p
b1111111110101000 E
b110101000 F
1%
1/
b10110110101000 .
b10110110101000 0
1!
#570
0!
#575
b10000 -
b10000 P
b10000 7
b10000 r
b10000 N
b10000 U
b1101 :
b1011000000000101 '
b1011000000000101 @
b1011000000000101 {
b1100 ,
b1100 y
0s
b10001 5
b10001 T
b10001 u
0%
0/
b1101 9
b1100 &
b1100 C
b1100 m
1!
#580
0!
#585
b0 -
b0 P
b0 7
b0 r
b101 :
1L
b0 N
b0 U
b0 )
b0 >
b0 |
b0 3
b0 R
b101 J
b101 ;
1B
b1111 O
b1111 S
b1111 k
06
b0 5
b0 T
b0 u
b0 4
b0 t
b101 D
0s
b101 Q
b101 l
b1011 <
b1011 V
b0 8
b0 o
b0 2
b0 p
b0 1
b0 q
b101 G
b101 H
b101 E
b101 F
1%
1/
b1011000000000101 .
b1011000000000101 0
1!
#590
0!
#595
b1010000110001101 '
b1010000110001101 @
b1010000110001101 {
b101 ,
b101 y
0%
0/
b110 9
b101 &
b101 C
b101 m
1!
#600
0!
#605
b10001 -
b10001 P
b110 Q
b110 l
b10001 7
b10001 r
b110 :
0L
b10001 N
b10001 U
b10 )
b10 >
b10 |
b1101 3
b1101 R
b1101 J
b1101 ;
1M
1K
0B
b10001 5
b10001 T
b10001 u
b10 4
b10 t
b1101 D
b1010 <
b1010 V
b110 2
b110 p
b1 1
b1 q
b1101 G
b1101 H
b1111111110001101 E
b110001101 F
1%
1/
b1010000110001101 .
b1010000110001101 0
1!
#610
0!
#615
b111 :
b1001000011001000 '
b1001000011001000 @
b1001000011001000 {
b110 ,
b110 y
0%
0/
b111 9
b110 &
b110 C
b110 m
1!
#620
0!
#625
bx '
bx @
bx {
b110101 ,
b110101 y
b110101 -
b110101 P
1$
b110101 7
b110101 r
1*
1(
b110101 N
b110101 U
b10 3
b10 R
b1000 J
b1000 ;
1A
1=
0K
0M
b110101 5
b110101 T
b110101 u
b1000 D
b111 Q
b111 l
b1001 <
b1001 V
b11 2
b11 p
b1000 G
b1000 H
b11001000 E
b11001000 F
1%
1/
b1001000011001000 .
b1001000011001000 0
1!
#630
b100000000 ~
0!
#635
b1000 :
b111 ,
b111 y
0$
0%
0/
b1100001010000 '
b1100001010000 @
b1100001010000 {
b1000 9
b111 &
b111 C
b111 m
1!
#640
0!
#645
b101 -
b101 P
b101 7
b101 r
1s
0*
0(
b101 N
b101 U
b11 )
b11 >
b11 |
b11 3
b11 R
b10000 J
b10000 ;
b1 O
b1 S
b1 k
16
0A
0=
b10 5
b10 T
b10 u
b11 4
b11 t
b10000 D
b1100001010000 '
b1100001010000 @
b1100001010000 {
b111 ,
b111 y
b1000 Q
b1000 l
0$
b1 <
b1 V
b100 8
b100 o
b1 2
b1 p
b10 1
b10 q
b10000 G
b10000 H
b1010000 E
b1010000 F
1%
1/
b1100001010000 .
b1100001010000 0
1!
#650
0!
#655
b1001 :
b1001010000000 '
b1001010000000 @
b1001010000000 {
b1000 ,
b1000 y
0s
0%
0/
b1001 9
b1000 &
b1000 C
b1000 m
1!
#660
0!
#665
b11 -
b11 P
b11 7
b11 r
b11 N
b11 U
b0 )
b0 >
b0 |
b0 3
b0 R
b0 J
b0 ;
b11 5
b11 T
b11 u
b0 4
b0 t
b0 D
1s
b1001 Q
b1001 l
b1 8
b1 o
b10 2
b10 p
b0 1
b0 q
b0 G
b0 H
b10000000 E
b10000000 F
1%
1/
b1001010000000 .
b1001010000000 0
1!
#670
0!
#675
b1010 :
b1010100000000 '
b1010100000000 @
b1010100000000 {
b1001 ,
b1001 y
0s
0%
0/
b1010 9
b1001 &
b1001 C
b1001 m
1!
#680
0!
#685
b101 -
b101 P
b101 7
b101 r
b101 N
b101 U
b101 5
b101 T
b101 u
1s
b1010 Q
b1010 l
b10 8
b10 o
b100 2
b100 p
b1111111100000000 E
b100000000 F
1%
1/
b1010100000000 .
b1010100000000 0
1!
#690
0!
#695
b1011 :
b1011011101000 '
b1011011101000 @
b1011011101000 {
b1010 ,
b1010 y
0s
0%
0/
b1011 9
b1010 &
b1010 C
b1010 m
1!
#700
0!
#705
b110110 -
b110110 P
b110110 7
b110110 r
b110110 N
b110110 U
b1 )
b1 >
b1 |
b1 3
b1 R
b11101000 J
b11101000 ;
b110101 5
b110101 T
b110101 u
b1 4
b1 t
b1111111111101000 D
1s
b1011 Q
b1011 l
b11 8
b11 o
b11 2
b11 p
b101 1
b101 q
b1111111111101000 G
b101000 H
b11101000 E
b11101000 F
1%
1/
b1011011101000 .
b1011011101000 0
1!
#710
0!
#715
b110111 -
b110111 P
b110111 7
b110111 r
b110111 N
b110111 U
b1100 :
b10110110101000 '
b10110110101000 @
b10110110101000 {
b1011 ,
b1011 y
0s
b110110 5
b110110 T
b110110 u
0%
0/
b1100 9
b1011 &
b1011 C
b1011 m
1!
#720
0!
#725
b10000 -
b10000 P
b10000 7
b10000 r
b10000 N
b10000 U
b10 O
b10 S
b10 k
16
b10001 5
b10001 T
b10001 u
1s
b1100 Q
b1100 l
b10 <
b10 V
b110 8
b110 o
b110 2
b110 p
b1111111110101000 E
b110101000 F
1%
1/
b10110110101000 .
b10110110101000 0
1!
#730
0!
#735
b1111 -
b1111 P
b1111 7
b1111 r
b1111 N
b1111 U
b1101 :
b1011000000000101 '
b1011000000000101 @
b1011000000000101 {
b1100 ,
b1100 y
0s
b10000 5
b10000 T
b10000 u
0%
0/
b1101 9
b1100 &
b1100 C
b1100 m
1!
#740
0!
#745
b0 -
b0 P
b0 7
b0 r
b101 :
1L
b0 N
b0 U
b0 )
b0 >
b0 |
b0 3
b0 R
b101 J
b101 ;
1B
b1111 O
b1111 S
b1111 k
06
b0 5
b0 T
b0 u
b0 4
b0 t
b101 D
0s
b101 Q
b101 l
b1011 <
b1011 V
b0 8
b0 o
b0 2
b0 p
b0 1
b0 q
b101 G
b101 H
b101 E
b101 F
1%
1/
b1011000000000101 .
b1011000000000101 0
1!
#750
0!
#755
b1010000110001101 '
b1010000110001101 @
b1010000110001101 {
b101 ,
b101 y
0%
0/
b110 9
b101 &
b101 C
b101 m
1!
#760
0!
#765
b10000 -
b10000 P
b110 Q
b110 l
b10000 7
b10000 r
b110 :
0L
b10000 N
b10000 U
b11 )
b11 >
b11 |
b1101 3
b1101 R
b1101 J
b1101 ;
1M
1K
0B
b10000 5
b10000 T
b10000 u
b11 4
b11 t
b1101 D
b1010 <
b1010 V
b110 2
b110 p
b1 1
b1 q
b1101 G
b1101 H
b1111111110001101 E
b110001101 F
1%
1/
b1010000110001101 .
b1010000110001101 0
1!
#770
0!
#775
b111 :
b1001000011001000 '
b1001000011001000 @
b1001000011001000 {
b110 ,
b110 y
0%
0/
b111 9
b110 &
b110 C
b110 m
1!
#780
0!
